4766_7 (1)/4766_7/4766_7/4766_7/Lab_06/simulation/qsim/Lab_06.msim.vcd
$comment
	File created using the following command:
		vcd file Lab_06.msim.vcd -direction
$end
$date
	Tue Jun 23 15:39:31 2020
$end
$version
	ModelSim Version 10.1d
$end
$timescale
	1ps
$end
$scope module Lab_06_KhongCuBo_vlg_vec_tst $end
$var reg 1 ! CLK $end
$var reg 1 " load $end
$var reg 4 # Value [3:0] $end
$var wire 1 $ O [3] $end
$var wire 1 % O [2] $end
$var wire 1 & O [1] $end
$var wire 1 ' O [0] $end
$var wire 1 ( sampler $end
$scope module i1 $end
$var wire 1 ) gnd $end
$var wire 1 * vcc $end
$var wire 1 + unknown $end
$var tri1 1 , devclrn $end
$var tri1 1 - devpor $end
$var tri1 1 . devoe $end
$var wire 1 / inst5|inst1~_emulated_regout $end
$var wire 1 0 inst3|inst1~_emulated_regout $end
$var wire 1 1 inst|inst1~_emulated_regout $end
$var wire 1 2 inst5|inst1~3_combout $end
$var wire 1 3 inst3|inst1~3_combout $end
$var wire 1 4 inst|inst1~3_combout $end
$var wire 1 5 CLK~combout $end
$var wire 1 6 inst1|inst11~0_combout $end
$var wire 1 7 load~combout $end
$var wire 1 8 inst5|inst1~1_combout $end
$var wire 1 9 inst5|inst1~2_combout $end
$var wire 1 : inst1|inst3~combout $end
$var wire 1 ; inst3|inst1~1_combout $end
$var wire 1 < inst3|inst1~2_combout $end
$var wire 1 = inst1|inst9~combout $end
$var wire 1 > inst|inst1~1_combout $end
$var wire 1 ? inst|inst1~2_combout $end
$var wire 1 @ inst4|inst|inst2~combout $end
$var wire 1 A inst4|inst1|inst4~combout $end
$var wire 1 B inst4|inst2|inst4~combout $end
$var wire 1 C inst4|inst3|inst4~0_combout $end
$var wire 1 D Value~combout [3] $end
$var wire 1 E Value~combout [2] $end
$var wire 1 F Value~combout [1] $end
$var wire 1 G Value~combout [0] $end
$upscope $end
$upscope $end
$enddefinitions $end
#0
$dumpvars
0!
0"
b0 #
x'
x&
x%
x$
x(
0)
1*
x+
1,
1-
1.
0/
00
01
x2
x3
x4
05
06
07
x8
x9
0:
x;
x<
0=
x>
x?
x@
xA
xB
xC
0G
0F
0E
0D
$end
#10000
1!
15
0(
x1
x0
x/
#20000
0!
05
1(
#30000
1!
15
0(
#40000
0!
05
1(
#50000
1!
15
0(
#60000
0!
05
1(
#70000
1!
15
0(
#80000
0!
05
1(
#90000
1!
15
0(
#100000
0!
05
1(
#110000
1!
15
0(
#120000
0!
05
1(
#130000
1!
15
0(
#140000
0!
05
1(
#150000
1!
15
0(
#160000
0!
05
1(
#170000
1!
15
0(
#180000
0!
05
1(
#190000
1!
15
0(
#200000
0!
05
1(
#210000
1!
15
0(
#220000
0!
05
1(
#230000
1!
15
0(
#240000
0!
05
1(
#250000
1!
15
0(
#260000
0!
05
1(
#270000
1!
15
0(
#280000
0!
05
1(
#290000
1!
15
0(
#300000
0!
05
1(
#310000
1!
15
0(
#320000
1"
0!
17
05
1(
0?
0>
0<
0;
09
08
1C
0B
0A
0@
04
03
12
1'
0&
0%
0$
01
00
0/
#330000
1!
15
0(
#340000
0!
05
1(
#350000
1!
15
0(
#360000
0!
05
1(
#370000
1!
15
0(
#380000
0!
05
1(
#390000
1!
15
0(
#400000
0!
05
1(
#410000
1!
15
0(
#420000
0!
05
1(
#430000
1!
15
0(
#440000
0!
05
1(
#450000
1!
15
0(
#460000
0!
05
1(
#470000
1!
15
0(
#480000
0!
05
1(
#490000
1!
15
0(
#500000
0!
05
1(
#510000
1!
15
0(
#520000
0!
05
1(
#530000
1!
15
0(
#540000
0!
05
1(
#550000
1!
15
0(
#560000
0!
05
1(
#570000
1!
15
0(
#580000
0!
05
1(
#590000
1!
15
0(
#600000
0!
05
1(
#610000
1!
15
0(
#620000
0!
05
1(
#630000
1!
15
0(
#640000
0"
0!
07
05
1(
#650000
1!
15
0(
1/
19
1@
14
02
1$
#660000
0!
05
1(
#670000
1!
15
0(
11
0/
1?
09
1A
0@
12
1%
0$
#680000
0!
05
1(
#690000
1!
15
0(
1/
19
0C
1B
0A
04
13
02
0'
1&
0%
#700000
0!
05
1(
#710000
1!
15
0(
01
10
0/
0?
1<
09
12
#720000
0!
05
1(
#730000
1!
15
0(
1/
19
0B
1A
14
02
0&
1%
#740000
0!
05
1(
#750000
1!
15
0(
11
0/
1?
09
1C
12
1'
#760000
0!
05
1(
#770000
1!
15
0(
1/
19
1B
0A
04
03
02
1&
0%
#780000
0!
05
1(
#790000
1!
15
0(
01
00
0/
0?
0<
09
0B
12
0&
#800000
0!
05
1(
#810000
1!
15
0(
1/
19
1@
14
02
1$
#820000
0!
05
1(
#830000
1!
15
0(
11
0/
1?
09
1A
0@
12
1%
0$
#840000
0!
05
1(
#850000
1!
15
0(
1/
19
0C
1B
0A
04
13
02
0'
1&
0%
#860000
0!
05
1(
#870000
1!
15
0(
01
10
0/
0?
1<
09
12
#880000
0!
05
1(
#890000
1!
15
0(
1/
19
0B
1A
14
02
0&
1%
#900000
0!
05
1(
#910000
1!
15
0(
11
0/
1?
09
1C
12
1'
#920000
0!
05
1(
#930000
1!
15
0(
1/
19
1B
0A
04
03
02
1&
0%
#940000
0!
05
1(
#950000
1!
15
0(
01
00
0/
0?
0<
09
0B
12
0&
#960000
1"
0!
17
05
1(
#970000
1!
15
0(
#980000
0!
05
1(
#990000
1!
15
0(
