week/CE118/Week3/counter_up-down/simulation/qsim/up_down.msim.vcd
$comment
	File created using the following command:
		vcd file up_down.msim.vcd -direction
$end
$date
	Mon Apr 12 11:29:49 2021
$end
$version
	ModelSim Version 10.1d
$end
$timescale
	1ps
$end
$scope module up_down_vlg_vec_tst $end
$var reg 1 ! CLK $end
$var reg 1 " D $end
$var reg 1 # E $end
$var reg 1 $ I0 $end
$var reg 1 % I1 $end
$var reg 1 & I2 $end
$var reg 1 ' I3 $end
$var reg 1 ( I4 $end
$var reg 1 ) I5 $end
$var reg 1 * I6 $end
$var reg 1 + I7 $end
$var reg 1 , LOAD $end
$var wire 1 - Y0 $end
$var wire 1 . Y1 $end
$var wire 1 / Y2 $end
$var wire 1 0 Y3 $end
$var wire 1 1 Y4 $end
$var wire 1 2 Y5 $end
$var wire 1 3 Y6 $end
$var wire 1 4 Y7 $end
$var wire 1 5 sampler $end
$scope module i1 $end
$var wire 1 6 gnd $end
$var wire 1 7 vcc $end
$var wire 1 8 unknown $end
$var tri1 1 9 devclrn $end
$var tri1 1 : devpor $end
$var tri1 1 ; devoe $end
$var wire 1 < I2~combout $end
$var wire 1 = I6~combout $end
$var wire 1 > I0~combout $end
$var wire 1 ? I1~combout $end
$var wire 1 @ I5~combout $end
$var wire 1 A CLK~combout $end
$var wire 1 B D~combout $end
$var wire 1 C LOAD~combout $end
$var wire 1 D E~combout $end
$var wire 1 E inst|inst9|inst2~0_combout $end
$var wire 1 F inst|inst13~regout $end
$var wire 1 G inst|inst2|inst5~combout $end
$var wire 1 H inst|inst8|inst2~0_combout $end
$var wire 1 I inst|inst12~regout $end
$var wire 1 J inst|inst2|inst2~0_combout $end
$var wire 1 K inst|inst6|inst2~0_combout $end
$var wire 1 L I3~combout $end
$var wire 1 M inst|inst6|inst2~1_combout $end
$var wire 1 N inst|inst10~regout $end
$var wire 1 O inst|inst7|inst2~0_combout $end
$var wire 1 P inst|inst11~regout $end
$var wire 1 Q I7~combout $end
$var wire 1 R I4~combout $end
$var wire 1 S inst2|inst9|inst2~3_combout $end
$var wire 1 T inst2|inst9|inst2~2_combout $end
$var wire 1 U inst2|inst13~regout $end
$var wire 1 V inst2|inst3|inst2~0_combout $end
$var wire 1 W inst2|inst3|inst2~1_combout $end
$var wire 1 X inst2|inst3|inst2~2_combout $end
$var wire 1 Y inst2|inst8|inst2~0_combout $end
$var wire 1 Z inst2|inst12~regout $end
$var wire 1 [ inst2|inst1|inst5~combout $end
$var wire 1 \ inst2|inst7|inst2~0_combout $end
$var wire 1 ] inst2|inst11~regout $end
$var wire 1 ^ inst2|inst6|inst2~0_combout $end
$var wire 1 _ inst2|inst6|inst2~1_combout $end
$var wire 1 ` inst2|inst10~regout $end
$upscope $end
$upscope $end
$enddefinitions $end
#0
$dumpvars
0!
1"
1#
1$
1%
1&
0'
0(
0)
0*
0+
0,
0-
0.
0/
00
01
02
03
04
x5
06
17
x8
19
1:
1;
1<
0=
1>
1?
0@
0A
1B
0C
1D
1E
0F
1G
1H
0I
1J
1K
0L
1M
0N
1O
0P
0Q
0R
1S
1T
0U
1V
1W
1X
1Y
0Z
1[
1\
0]
1^
1_
0`
$end
#10000
1!
1*
1(
0%
1A
1=
1R
0?
05
1`
1]
1Z
1U
1P
1N
1I
1F
0_
0^
0Y
0V
0T
0S
0O
0J
0E
14
13
12
11
1/
10
1.
1-
1_
0X
1T
1O
1Y
#20000
1+
1)
1'
0$
0!
0*
0(
1Q
1@
1L
0>
0A
0=
0R
15
#30000
0&
0+
0)
0'
1!
1*
1(
0<
0Q
0@
0L
1A
1=
1R
05
0F
0W
0G
1E
0-
0H
#40000
1&
0!
1<
0A
15
#50000
0"
1$
1+
1)
1'
0(
0&
1!
0B
1>
1Q
1@
1L
0R
0<
1A
05
1V
1G
1H
0I
1F
0E
0.
1-
#60000
0*
0)
1(
0!
0=
0@
1R
0A
15
#70000
0$
0+
1!
0>
0Q
1A
05
1I
0F
1E
1.
0-
#80000
1%
0(
1+
0!
1?
0R
1Q
0A
15
#90000
1)
1$
0%
1!
1@
1>
0?
1A
05
1F
1W
1J
0G
0E
1-
1X
1S
0O
0K
0H
1^
0[
0Y
0T
0M
0_
0\
#100000
1,
0#
1"
0'
1&
1*
0$
1%
0!
1C
0D
1B
0L
1<
1=
0>
1?
0A
15
1_
1\
1Y
1O
1H
0X
0J
1G
0^
1[
0V
0S
1K
#110000
1!
1A
05
0U
0N
0F
0W
0K
01
00
0-
#120000
1(
0+
0&
0*
0%
0!
1R
0Q
0<
0=
0?
0A
15
1T
0_
0O
0\
0H
#130000
0)
1$
1*
1%
1!
0@
1>
1=
1?
1A
05
0Y
1E
1\
1H
0`
0]
1U
0P
0I
0[
0G
04
03
11
0/
0.
#140000
1+
1&
1)
0%
0!
1Q
1<
1@
0?
0A
15
1_
1O
1Y
0H
#150000
0"
1'
0+
0&
0)
1%
1!
0B
1L
0Q
0<
0@
1?
1A
05
1M
0_
0O
0Y
1H
1`
1]
1P
1F
1[
14
13
1/
1-
#160000
0$
0*
0'
1&
0!
0>
0=
0L
1<
0A
15
0E
0\
0M
1O
#170000
0(
1'
1!
0R
1L
1A
05
0T
1M
0`
0]
0Z
1I
0F
0[
1G
04
03
02
1.
0-
#180000
1)
0%
1*
1(
0!
1@
0?
1=
1R
0A
15
1Y
0H
1\
1T
#190000
0&
0)
1!
0<
0@
1A
05
0O
0Y
1]
1Z
1N
0I
1[
1V
1K
0G
13
12
10
0.
#200000
0,
1#
1"
1$
0'
0(
1&
1)
0!
0C
1D
1B
1>
0L
0R
1<
1@
0A
15
1Y
1O
1E
1J
1G
0V
0O
1H
#210000
1%
0$
1(
0&
0)
1!
1?
0>
1R
0<
0@
1A
05
0P
1I
1F
1O
0K
1W
0J
0E
0/
1.
1-
0M
0O
1K
1M
#220000
0*
0%
1)
0!
0=
0?
1@
0A
15
#230000
1%
1!
1?
1A
05
0F
0W
0G
1E
0-
0H
#240000
1'
1$
0(
1&
0%
0!
1L
1>
0R
1<
0?
0A
15
#250000
0"
0)
1%
1!
0B
0@
1?
1A
05
1G
1H
0I
1F
0E
0.
1-
#260000
1+
1(
0&
0!
1Q
1R
0<
0A
15
#270000
1*
0'
0$
1)
0+
0(
1&
1!
1=
0L
0>
1@
0Q
0R
1<
1A
05
1I
0F
1E
1.
0-
#280000
1'
1+
0!
1L
1Q
0A
15
#290000
0%
1$
0'
0+
1!
0?
1>
0L
0Q
1A
05
1F
1W
1J
0G
0E
1-
1O
0H
#300000
1,
0#
1"
0)
1(
1%
0!
1C
0D
1B
0@
1R
1?
0A
15
0Y
0M
1H
1E
0J
1G
0K
1K
#310000
0*
0(
0%
1!
0=
0R
0?
1A
05
0\
0T
0H
0Z
1P
0N
0K
02
1/
00
#320000
0&
0$
1+
1)
1(
0!
0<
0>
1Q
1@
1R
0A
15
0O
0E
1_
1Y
1T
#330000
1*
1&
1$
0+
0)
0(
1!
1=
1<
1>
0Q
0@
0R
1A
05
1\
1O
1E
0_
0Y
0T
1`
0]
1Z
0P
0I
0F
0[
0W
0G
14
03
12
0/
0.
0-
#340000
1%
0&
1)
0!
1?
0<
1@
0A
15
1H
0O
1Y
#350000
1'
0"
0*
0$
1+
1(
0%
1!
1L
0B
0=
0>
1Q
1R
0?
1A
05
1M
0\
0E
1_
1T
0H
0`
1]
0U
1I
1F
1[
1G
04
13
01
1.
1-
#360000
0)
0'
0+
0!
0@
0L
0Q
0A
15
0Y
0M
0_
#370000
1!
1A
05
0]
0Z
1U
0I
0F
0[
0G
03
02
11
0.
0-
#380000
1&
1*
1$
0(
1%
1+
0!
1<
1=
1>
0R
1?
1Q
0A
15
1O
1\
1E
0T
1H
1_
#390000
0*
0$
1(
0%
1!
0=
0>
1R
0?
1A
05
0\
0E
1T
0H
1`
1]
0U
1P
1I
1F
1[
1G
14
13
01
1/
1.
1-
#400000
0,
1#
1"
1)
0&
1$
0(
0!
0C
1D
1B
1@
0<
1>
0R
0A
15
1\
0T
1H
#410000
1'
0+
1*
1%
0)
1&
0$
1!
1L
0Q
1=
1?
0@
1<
0>
1A
05
0F
0G
1E
0-
0H
#420000
1(
1+
0%
0&
1$
0!
1R
1Q
0?
0<
1>
0A
15
#430000
0'
0(
0+
1&
0$
1!
0L
0R
0Q
1<
0>
1A
05
0I
1F
0E
0.
1-
#440000
1)
1%
1'
1(
1+
0&
0!
1@
1?
1L
1R
1Q
0<
0A
15
#450000
0"
0%
1!
0B
0?
1A
05
1G
1H
0F
1W
0G
1E
0-
0H
#460000
0)
0+
1%
0!
0@
0Q
1?
0A
15
#470000
0'
0(
1)
1+
1!
0L
0R
1@
1Q
1A
05
1F
0W
1G
0E
1-
1H
#480000
0*
1$
0%
1(
0)
0!
0=
1>
0?
1R
0@
0A
15
#490000
1'
0+
0(
1!
1L
0Q
0R
1A
05
1I
0F
1E
1.
0-
#500000
1,
0#
1"
0$
0'
1+
0!
1C
0D
1B
0>
0L
1Q
0A
15
0\
0O
0H
0E
#510000
1&
1)
1$
1!
1<
1@
1>
1A
05
1O
1Y
1E
0]
0P
0I
0[
1V
1W
0G
03
0/
0.
#520000
1(
0&
0!
1R
0<
0A
15
1T
0O
#530000
1'
0$
1&
1!
1L
0>
1<
1A
05
1M
0E
1O
1Z
1U
1F
0W
0V
12
11
1-
#540000
0)
0'
0&
0!
0@
0L
0<
0A
15
0Y
0M
0O
#550000
1*
0"
1&
1!
1=
0B
1<
1A
05
1\
1O
0Z
0F
02
0-
#560000
0+
0(
1'
0*
0!
0Q
0R
1L
0=
0A
15
0_
0T
1M
0\
#570000
1%
1$
1)
1(
0'
1!
1?
1>
1@
1R
0L
1A
05
1H
1E
1Y
1T
0M
0`
0U
1P
1N
1W
1K
04
01
1/
10
#580000
1*
0%
1'
0!
1=
0?
1L
0A
15
1\
0H
1M
#590000
0&
1+
0$
1%
0'
1!
0<
1Q
0>
1?
0L
1A
05
0O
1_
0E
1H
0M
1]
1Z
1U
1F
1[
0W
1V
13
12
11
1-
#600000
0,
1#
1"
0(
1&
1'
0!
0C
1D
1B
0R
1<
1L
0A
15
0_
1O
1M
0H
0V
#610000
0+
1(
0&
0'
1!
0Q
1R
0<
0L
1A
05
0F
1J
1G
1E
0-
0O
1H
#620000
0)
0*
1$
1+
0(
1&
1'
0!
0@
0=
1>
1Q
0R
1<
1L
0A
15
#630000
0%
1)
1*
1(
0'
1!
0?
1@
1=
1R
0L
1A
05
0P
1I
1F
1O
0K
1W
0J
0E
0/
1.
1-
0M
0O
1K
1M
#640000
0&
0(
1'
0!
0<
0R
1L
0A
15
#650000
0"
1%
1&
1!
0B
1?
1<
1A
05
1J
0G
1O
0H
0F
0W
0J
1G
1E
0-
0O
1H
#660000
0)
1(
0%
0!
0@
1R
0?
0A
15
#670000
0$
0&
1)
1!
0>
0<
1@
1A
05
1F
1W
1J
0G
0E
1-
1O
0H
#680000
0+
0'
1%
1$
1&
0)
0!
0Q
0L
1?
1>
1<
0@
0A
15
#690000
0(
1+
0%
0&
1)
1!
0R
1Q
0?
0<
1@
1A
05
1P
0I
0F
1V
1S
0O
0K
0W
0J
1E
1/
0.
0-
0T
0M
0S
1O
1K
1T
1M
#700000
1,
0#
0*
1"
0$
1%
0)
0!
1C
0D
0=
1B
0>
1?
0@
0A
15
1_
0\
0Y
0T
0O
0M
1H
0E
0V
#710000
0+
1&
1$
0%
1!
0Q
1<
1>
0?
1A
05
0_
1O
1E
0H
1`
0]
0Z
0U
0P
0N
1I
0[
1V
0K
1G
14
03
02
01
0/
00
1.
#720000
1(
1)
1+
0$
1%
0!
1R
1@
1Q
0>
1?
0A
15
1T
1Y
1_
0E
1H
#730000
1'
0&
0(
0)
1!
1L
0<
0R
0@
1A
05
1M
0O
0T
0Y
1Z
1U
1P
0V
12
11
1/
#740000
0'
1(
0!
0L
1R
0A
15
0M
1T
#750000
0"
1'
1!
0B
1L
1A
05
1M
0Z
0P
02
0/
#760000
1$
0!
1>
0A
15
1E
#770000
1)
0(
0$
1!
1@
0R
0>
1A
05
1Y
0T
0E
1N
1F
1K
1W
10
1-
#780000
0%
0)
1(
1$
0!
0?
0@
1R
1>
0A
15
0H
0Y
1T
1E
#790000
1*
1&
1)
1!
1=
1<
1@
1A
05
1\
1O
1Y
0I
0W
0G
0.
#800000
0,
1#
1"
0'
0*
0!
0C
1D
1B
0L
0=
0A
15
0\
0Y
0O
0E
#810000
0+
0$
0&
1'
1*
1!
0Q
0>
0<
1L
1=
1A
05
0F
1J
1G
1E
0-
1O
0K
1H
0M
#820000
1%
0(
1+
1&
0!
1?
0R
1Q
1<
0A
15
#830000
0)
0%
1(
0+
1!
0@
0?
1R
0Q
1A
05
1P
0N
1I
1F
0O
1W
0J
0E
1/
00
1.
1-
1O
#840000
0(
1+
0!
0R
1Q
0A
15
#850000
0"
1$
0*
0&
0+
1!
0B
1>
0=
0<
0Q
1A
05
1J
0G
0O
1K
0H
1M
0F
0W
0J
1G
1E
0-
1O
0K
1H
0M
#860000
1)
1&
1+
0!
1@
1<
1Q
0A
15
#870000
0'
1%
1(
0)
0&
0+
1!
0L
1?
1R
0@
0<
0Q
1A
05
1F
1W
1J
0G
0E
1-
0O
1K
0H
1M
#880000
0$
1*
0%
0(
1)
1+
0!
0>
1=
0?
0R
1@
1Q
0A
15
#890000
0*
0)
1!
0=
0@
1A
05
0P
1N
0I
0F
1O
0W
0J
1E
0/
10
0.
0-
0O
#900000
1,
0#
1"
1&
1$
0+
1*
1)
0!
1C
0D
1B
1<
1>
0Q
1=
1@
0A
15
0_
1\
1Y
0T
1O
0M
#910000
1%
1(
1+
0*
1!
1?
1R
1Q
0=
1A
05
1H
1T
1_
0\
0`
1]
1Z
0U
1P
0N
1F
1[
0K
04
13
12
01
1/
00
1-
#920000
1'
0&
0(
1*
0!
1L
0<
0R
1=
0A
15
1M
0O
0T
1\
#930000
0$
0'
1&
1!
0>
0L
1<
1A
05
0E
0M
1O
1`
0P
1N
1I
1K
1G
14
0/
10
1.
#940000
0%
0+
1'
0&
0!
0?
0Q
1L
0<
0A
15
0H
0_
1M
0O
#950000
0"
0)
1(
0*
1$
1&
1!
0B
0@
1R
0=
1>
1<
1A
05
0Y
1T
0\
1E
1O
0`
0I
0F
1W
0G
04
0.
0-
#960000
1+
0'
0(
1*
0!
1Q
0L
0R
1=
0A
15
1_
0M
0T
1\
#970000
1)
1'
1(
0*
1!
1@
1L
1R
0=
1A
05
1Y
1M
1T
0\
1`
0Z
1P
0N
1F
0K
0W
14
02
1/
00
1-
#980000
1%
0&
0)
0!
1?
0<
0@
0A
15
1H
0O
0Y
#990000
0$
0+
0%
1!
0>
0Q
0?
1A
05
0E
0_
0H
0]
1U
0P
1N
1I
0[
1W
1K
1G
03
11
0/
10
1.
